<?xml version="1.0" standalone="no"?>
<!DOCTYPE svg PUBLIC "-//W3C//DTD SVG 20010904//EN"
 "http://www.w3.org/TR/2001/REC-SVG-20010904/DTD/svg10.dtd">
<svg version="1.0" xmlns="http://www.w3.org/2000/svg"
 width="200.000000pt" height="200.000000pt" viewBox="0 0 200.000000 200.000000"
 preserveAspectRatio="xMidYMid meet">
<metadata>
Created by potrace 1.15, written by Peter Selinger 2001-2017
</metadata>
<g transform="translate(0.000000,200.000000) scale(0.100000,-0.100000)"
fill="#000000" stroke="none">
<path d="M563 1360 c-52 -21 -54 -35 -51 -343 3 -264 4 -286 22 -306 18 -20
28 -21 262 -21 212 0 243 2 238 15 -5 13 -40 15 -226 15 -132 0 -227 4 -239
10 -18 10 -19 23 -19 233 0 160 3 226 12 235 18 18 731 17 746 -1 6 -7 12 -53
14 -102 3 -76 6 -90 21 -93 15 -3 17 8 17 127 0 123 -1 131 -24 158 l-24 28
-239 5 c-220 5 -241 7 -283 27 -35 18 -62 22 -125 22 -44 0 -90 -4 -102 -9z
m233 -55 c48 -24 54 -25 275 -25 214 0 249 -4 249 -30 0 -3 -173 -5 -385 -5
l-385 0 0 31 c0 47 15 54 110 54 73 0 95 -4 136 -25z"/>
<path d="M1152 969 c-47 -24 -83 -66 -101 -118 -53 -161 126 -314 284 -242
144 65 164 255 36 346 -57 40 -155 47 -219 14z m163 -28 c168 -76 118 -311
-65 -311 -141 0 -220 157 -133 261 30 35 94 69 133 69 14 0 43 -9 65 -19z"/>
</g>
</svg>
