<?xml version="1.0" standalone="no"?>
<!DOCTYPE svg PUBLIC "-//W3C//DTD SVG 20010904//EN"
 "http://www.w3.org/TR/2001/REC-SVG-20010904/DTD/svg10.dtd">
<svg version="1.0" xmlns="http://www.w3.org/2000/svg"
 width="200.000000pt" height="200.000000pt" viewBox="0 0 200.000000 200.000000"
 preserveAspectRatio="xMidYMid meet">
<metadata>
Created by potrace 1.15, written by Peter Selinger 2001-2017
</metadata>
<g transform="translate(0.000000,200.000000) scale(0.100000,-0.100000)"
fill="#000000" stroke="none">
<path d="M572 1390 c-12 -5 -27 -21 -32 -34 -5 -14 -8 -154 -7 -320 2 -293 2
-296 25 -318 22 -22 28 -23 262 -26 l239 -3 -10 31 c-6 17 -9 60 -7 95 5 82
42 137 119 178 47 25 62 28 119 24 36 -2 72 -7 81 -11 15 -6 17 8 21 126 6
150 -4 192 -47 208 -15 6 -122 10 -240 10 -206 0 -215 1 -267 25 -44 21 -67
25 -143 24 -49 0 -100 -4 -113 -9z"/>
<path d="M1201 987 c-77 -25 -141 -116 -141 -202 1 -72 63 -153 139 -180 77
-27 149 -14 208 38 169 149 11 413 -206 344z"/>
</g>
</svg>
