<svg xmlns="http://www.w3.org/2000/svg" width="85" height="88" viewBox="0 0 85 88">
  <defs>
    <style>
      .cls-1 {
        fill: #fff;
        fill-rule: evenodd;
      }
    </style>
  </defs>
  <path id="N" class="cls-1" d="M84.234,0.223H56.783V44.986L27.724,0.223H0.272V87.771H27.724V43.75L56.783,87.771H84.234V0.223Z"/>
</svg>
