<svg xmlns="http://www.w3.org/2000/svg" width="354" height="367" viewBox="0 0 354 367">
  <defs>
    <style>
      .cls-1 {
        fill: #7030a0;
        fill-rule: evenodd;
      }
    </style>
  </defs>
  <path class="cls-1" d="M352,1H237.569V187.623L116.435,1H2V366H116.435V182.47L237.569,366H352V1Z"/>
</svg>
