<?xml version="1.0" encoding="utf-8"?>
<!-- Generator: Adobe Illustrator 19.0.0, SVG Export Plug-In . SVG Version: 6.00 Build 0)  -->
<svg version="1.1" id="Layer_1" xmlns="http://www.w3.org/2000/svg" xmlns:xlink="http://www.w3.org/1999/xlink" x="0px" y="0px"
	 viewBox="0 0 1000 1000" style="enable-background:new 0 0 1000 1000;" xml:space="preserve">
<style type="text/css">
	.st0{fill:#FFFFFF;}
	.st1{fill:#404041;}
</style>
<g id="XMLID_3_">
	<ellipse id="XMLID_332_" class="st0" cx="500.501" cy="500" rx="490.43" ry="473.899"/>
	<polygon id="XMLID_331_" class="st1" points="672.983,488.978 511.522,488.978 511.522,316.319 489.481,316.319 489.481,488.978 
		328.02,488.978 328.02,511.02 489.481,511.02 489.481,683.684 511.522,683.684 511.522,511.02 672.983,511.02 	"/>
</g>
<g id="XMLID_4_">
</g>
<g id="XMLID_5_">
</g>
<g id="XMLID_6_">
</g>
<g id="XMLID_7_">
</g>
<g id="XMLID_8_">
</g>
<g id="XMLID_9_">
</g>
</svg>
