<?xml version="1.0" standalone="no"?>
<!DOCTYPE svg PUBLIC "-//W3C//DTD SVG 20010904//EN"
 "http://www.w3.org/TR/2001/REC-SVG-20010904/DTD/svg10.dtd">
<svg version="1.0" xmlns="http://www.w3.org/2000/svg"
 width="200.000000pt" height="200.000000pt" viewBox="0 0 200.000000 200.000000"
 preserveAspectRatio="xMidYMid meet">
<metadata>
Created by potrace 1.15, written by Peter Selinger 2001-2017
</metadata>
<g transform="translate(0.000000,200.000000) scale(0.100000,-0.100000)"
fill="#000000" stroke="none">
<path d="M925 1426 c-94 -42 -140 -166 -96 -261 24 -52 57 -82 117 -104 l49
-19 3 -60 3 -59 -48 -41 -49 -40 -32 39 c-155 184 -447 2 -339 -211 56 -112
211 -141 311 -58 45 37 66 81 66 137 0 35 6 46 46 83 25 24 50 44 54 46 4 1
30 -18 59 -44 47 -42 51 -49 51 -91 0 -50 11 -75 49 -116 40 -44 80 -60 146
-61 111 0 193 69 203 173 8 85 -28 155 -98 191 -94 48 -180 34 -253 -41 l-47
-49 -45 41 c-44 41 -45 43 -45 104 l0 62 43 13 c93 28 141 93 141 193 -1 109
-84 187 -199 186 -33 0 -73 -6 -90 -13z m137 -26 c41 -12 104 -75 114 -115 24
-96 -56 -195 -158 -195 -56 0 -91 15 -132 59 -24 25 -30 42 -34 88 -5 72 21
117 88 151 49 25 68 27 122 12z m-272 -503 c48 -25 90 -89 90 -137 0 -15 -10
-46 -23 -70 -26 -50 -90 -90 -144 -90 -104 0 -192 106 -163 198 34 105 144
150 240 99z m593 9 c104 -44 131 -165 56 -251 -78 -89 -232 -62 -274 49 -51
132 85 259 218 202z"/>
<path d="M965 1355 c-28 -27 -29 -33 -15 -70 8 -21 6 -31 -11 -54 -14 -20 -19
-39 -17 -67 l3 -39 87 -3 c86 -3 88 -2 94 22 7 30 -13 95 -32 103 -10 4 -11
10 -4 23 26 49 -5 110 -55 110 -14 0 -37 -11 -50 -25z"/>
<path d="M661 864 c-24 -30 -26 -46 -10 -76 7 -13 7 -23 2 -27 -32 -20 -44
-100 -19 -120 9 -7 42 -11 88 -9 l73 3 3 44 c2 32 -2 52 -16 71 -14 18 -17 31
-11 41 43 68 -60 136 -110 73z"/>
<path d="M1271 871 c-22 -22 -28 -75 -11 -86 6 -4 1 -17 -11 -34 -15 -20 -19
-39 -17 -72 l3 -44 73 -3 c46 -2 79 2 88 9 20 17 17 82 -4 110 -16 18 -17 28
-8 51 23 61 -66 116 -113 69z"/>
</g>
</svg>
