<?xml version="1.0" encoding="utf-8"?>
<!-- Generator: Adobe Illustrator 19.0.0, SVG Export Plug-In . SVG Version: 6.00 Build 0)  -->
<svg version="1.1" id="Layer_1" xmlns="http://www.w3.org/2000/svg" xmlns:xlink="http://www.w3.org/1999/xlink" x="0px" y="0px"
	 viewBox="0 0 1000 1000" style="enable-background:new 0 0 1000 1000;" xml:space="preserve">
<style type="text/css">
	.st0{fill:#FFFFFF;}
	.st1{fill:#404041;}
</style>
<g id="XMLID_30_">
	<ellipse id="XMLID_315_" class="st0" cx="499.212" cy="500" rx="492.212" ry="475.621"/>
	<path id="XMLID_202_" class="st1" d="M666.922,524.382c-47.59,0-88.375,28.536-105.276,68.862l-52.169-46.749v-71.426
		c57.492-5.411,102.589-52.505,102.589-109.645c0-60.76-50.984-110.188-113.65-110.188s-113.65,49.429-113.65,110.188
		c0,57.14,45.097,104.234,102.589,109.645v71.426l-50.98,45.684c-17.166-39.773-57.701-67.797-104.878-67.797
		c-62.666,0-113.645,49.429-113.645,110.188s50.979,110.194,113.645,110.194s113.65-49.434,113.65-110.194
		c0-6.468-0.693-12.769-1.801-18.934l55.069-49.349l56.465,50.599c-0.967,5.772-1.603,11.651-1.603,17.684
		c0,60.76,50.979,110.194,113.645,110.194s113.65-49.434,113.65-110.194S729.588,524.382,666.922,524.382z M383.475,685.112
		c0,12.363-10.062,22.419-22.424,22.419h-59.107c-12.363,0-22.419-10.056-22.419-22.419v-11.212
		c0-19.516,10.822-36.534,26.767-45.42c-8.59-6.953-14.07-17.37-14.07-29.004c0-20.88,17.618-37.865,39.275-37.865
		s39.28,16.986,39.28,37.865c0,11.634-5.48,22.05-14.072,29.003c15.947,8.886,26.769,25.904,26.769,45.421V685.112z
		 M468.419,439.308c-12.454,0-22.586-10.132-22.586-22.592v-11.38c0-19.823,11.037-37.11,27.28-46.069
		c-8.786-7.026-14.394-17.624-14.394-29.462c0-21.101,17.807-38.265,39.696-38.265c21.89,0,39.696,17.164,39.696,38.265
		c0,11.839-5.608,22.436-14.394,29.462c16.243,8.958,27.28,26.245,27.28,46.069v11.38c0,12.46-10.132,22.592-22.592,22.592H468.419z
		 M718.9,685.873c0,11.941-9.716,21.657-21.663,21.657h-60.63c-11.941,0-21.657-9.716-21.657-21.657v-14.717
		c0-18.74,10.525-35.057,25.971-43.374c-8.12-6.943-13.274-17.044-13.274-28.307c0-20.88,17.618-37.865,39.275-37.865
		s39.28,16.986,39.28,37.865c0,11.261-5.155,21.362-13.276,28.306c15.447,8.316,25.973,24.634,25.973,43.375V685.873z"/>
</g>
<g id="XMLID_3_">
</g>
<g id="XMLID_4_">
</g>
<g id="XMLID_5_">
</g>
<g id="XMLID_6_">
</g>
<g id="XMLID_7_">
</g>
<g id="XMLID_8_">
</g>
</svg>
